-------------------------------------------------------------------------------
Test set: RunnerTest
-------------------------------------------------------------------------------
Tests run: 1, Failures: 0, Errors: 1, Skipped: 0, Time elapsed: 3.451 s <<< FAILURE! - in RunnerTest
Deletar um filme com sucesso(Pegar Status do servidor #1)  Time elapsed: 2.504 s  <<< ERROR!
java.net.ConnectException: Connection refused: connect

